{
	"name": "fate",
	"title": "FATE",
	"description": "An implementation of FATE Core and Accelerated for Foundry",
	"version": "0.3.1",
	"author": "Nick van Oosten (NickEast#1131)",
	"scripts": [],
	"esmodules": ["fate.js"],
	"styles": ["fate.css"],
	"packs": [],
	"languages": [
		{
			"lang": "en",
			"name": "English",
			"path": "lang/en.json"
		}
	],
	"gridDistance": 1,
	"gridUnits": "",
	"minimumCoreVersion": "0.5.2",
	"compatibleCoreVersion": "0.5.5",
	"url": "https://gitlab.com/foundry-projects/fate",
	"manifest": "https://gitlab.com/foundry-projects/fate/-/raw/master/src/system.json",
	"download": "https://gitlab.com/foundry-projects/fate/-/raw/v0.3.1/package/fate-v0.3.1.zip"
}